{
    "commandline-args": null,
    "credentials": {},
    "description": "",
    "environments": [],
    "execution-timeout": 120,
    "groups": [],
    "max-retries": 0,
    "name": "config apache and set up firewall",
    "remove-after-run": true,
    "resource-technologies": [],
    "run-on-server": "The server(s) in context",
    "run-with-sudo": true,
    "script-filename": "remote_script_iQ0bLrh_ZCmXg5D_nJuuZnX",
    "shared": "False",
    "target-os-families": [
        "Linux -> CentOS"
    ],
    "type": "Remote Script"
}